[
    {
        "name": "CharacterList",
        "keys": [
            "m_Name"
        ]
    },
    {
        "name": "WeaponList",
        "keys": [
            "m_WeaponName"
        ]
    },
    {
        "name": "ADVLibraryList",
        "keys": [
            "m_ListName"
        ]
    },
    {
        "name": "TitleList",
        "keys": [
            "m_DisplayName"
        ]
    },
    {
        "name": "ItemList",
        "keys": [
            "m_Name"
        ]
    },
    {
        "name": "NamedList",
        "keys": [
            "fullName"
        ]
    },
    {
        "name": "QuestEnemyList",
        "keys": [
            "m_CharaName"
        ]
    }
]