﻿ja,zh,en,ko
ひだまりスケッチ,向阳素描,Hidamari Sketch,히다마리 스케치
ゆゆ式,悠悠式,Yuyushiki,유유시키
がっこうぐらし！,学园孤岛,School-Live!,학교생활!
Aチャンネル,A Channel,A Channel,A채널
きんいろモザイク,黄金拼图,Kiniro Mosaic,금빛 모자이크
NEW GAME!,NEW GAME!,NEW GAME!,NEW GAME!
ステラのまほう,斯特拉的魔法,Magic of Stella,스텔라의 마법
うらら迷路帖,Urara 迷路帖,Urara Meirochou,우라라 미로첩
キルミーベイベー,爱杀宝贝,Kill Me Baby,킬미 베이비
桜Trick,樱 Trick,Sakura Trick,사쿠라 Trick
ブレンド・S,Blend S,Blend S,블렌드S
スロウスタート,Slow Start,Slow Start,슬로 스타트
けいおん！,轻音少女,K-ON!,케이온!
ゆるキャン△,摇曳露营△,Yuru Camp,유루캠△
こみっくがーるず,Comic Girls,Comic Girls,코믹 걸즈
GA 芸術科アートデザインクラス,GA 艺术科美术设计班,GA Geijutsuka Art Design Class,GA 예술과 아트 디자인 클래스
夢喰いメリー,食梦者玛莉,Yumekui Merry,꿈을 먹는 메리
ハナヤマタ,花舞少女,Hanayamata,하나야마타
あんハピ♪,Anne Happy♪,Anne Happy,언해피♪
はるかなレシーブ,遥的接球,Harukana Receive,하루카나 리시브
ご注文はうさぎですか？,请问您今天要来点兔子吗？,Is the Order a Rabbit?,주문은 토끼입니까?
アニマエール！,Anima Yell!,Anima Yell!,아니마 옐!
きららファンタジア,Kirara Fantasia,Kirara Fantasia,키라라 판타지아
三者三葉,三者三叶,Sansha Sanyou,삼자삼엽
棺担ぎのクロ。～懐中旅話～,棺材、旅人、怪蝙蝠,Shoulder-a-Coffin Kuro,관지기 쿠로 ~마음속 여행자 이야기~
まちカドまぞく,街角魔族,Machikado Mazoku,길모퉁이 마족
はるみねーしょん,晴海国度,Harumination,하루미네이션
幸腹グラフィティ,幸腹涂鸦,Koufuku Graffiti,행복 그래피티
恋する小惑星,恋爱小行星,Asteroid in Love,사랑하는 소행성
球詠,球咏,Tamayomi,타마요미
あっちこっち,一起一起这里那里,Place to Place,
おちこぼれフルーツタルト,满溢的水果挞,Dropout Idol Fruit Tart,
ぱわーおぶすまいる。,,,
こはる日和。,,,
まんがタイム,,,
スローループ,,,
RPG不動産,,,
